D:\Programmieren\GitWorkspace\kugelmatik\api\JavaKugelmatikAPI\api\JavaKugelmatikAPI\src\test\java\de\kks\example\ExampleComponent.java
D:\Programmieren\GitWorkspace\kugelmatik\api\JavaKugelmatikAPI\api\JavaKugelmatikAPI\src\test\java\de\kks\tempServer\ServerCoordinate.java
D:\Programmieren\GitWorkspace\kugelmatik\api\JavaKugelmatikAPI\api\JavaKugelmatikAPI\src\test\java\de\kks\tempServer\ServerPackage.java
D:\Programmieren\GitWorkspace\kugelmatik\api\JavaKugelmatikAPI\api\JavaKugelmatikAPI\src\test\java\de\kks\example\Main.java
D:\Programmieren\GitWorkspace\kugelmatik\api\JavaKugelmatikAPI\api\JavaKugelmatikAPI\src\test\java\de\kks\tempServer\CoordinateHandler.java
D:\Programmieren\GitWorkspace\kugelmatik\api\JavaKugelmatikAPI\api\JavaKugelmatikAPI\src\test\java\de\kks\tempServer\ClientHandler.java
D:\Programmieren\GitWorkspace\kugelmatik\api\JavaKugelmatikAPI\api\JavaKugelmatikAPI\src\test\java\de\kks\tempServer\TempServer.java
